example_rnaseq_report.utf8
…
## 'select()' returned 1:1 mapping between keys and columns

Run the pathway analysis

fgsea_res <- fgsea(pathways = reactome_pathways, 
                   stats = exampleRanks, 
                   nperm = 1000)

Save results

### save results
fgsea_res %>%
  unnest(c(leadingEdge)) #%>%

## # A tibble: 17,134 x 8
##    pathway               pval  padj     ES    NES nMoreExtreme  size leadingEdge
##    <chr>                <dbl> <dbl>  <dbl>  <dbl>        <dbl> <int> <chr>      
##  1 5-Phosphoribose 1-d 0.878 0.955  0.427  0.679          444     2 328099     
##  2 5-Phosphoribose 1-d 0.878 0.955  0.427  0.679          444     2 19139      
##  3 A tetrasaccharide l 0.702 0.889  0.322  0.825          406    11 14733      
##  4 A tetrasaccharide l 0.702 0.889  0.322  0.825          406    11 20971      
##  5 A tetrasaccharide l 0.702 0.889  0.322  0.825          406    11 20970      
##  6 A tetrasaccharide l 0.702 0.889  0.322  0.825          406    11 12032      
##  7 A tetrasaccharide l 0.702 0.889  0.322  0.825          406    11 29873      
##  8 A tetrasaccharide l 0.702 0.889  0.322  0.825          406    11 218271     
##  9 A tetrasaccharide l 0.702 0.889  0.322  0.825          406    11 13179      
## 10 Abacavir metabolism  0.362 0.730 -0.628 -1.13           173     3 11522      
## #  with 17,124 more rows
  # write_tsv('all_pathway_results.tsv')

### save collapsed results
# find the essential top-level pathways
collapsed_pathways <- collapsePathways(fgsea_res, 
                                       pathways = reactome_pathways, 
                                       stats = exampleRanks)

# filter the results for the essential pathways
fgsea_res %>% 
  filter(pathway %in% collapsed_pathways$mainPathways) %>%
  arrange(pathway) %>% 
  unnest(c(leadingEdge)) #%>%

## # A tibble: 1,517 x 8
##    pathway               pval   padj     ES   NES nMoreExtreme  size leadingEdge
##    <chr>                <dbl>  <dbl>  <dbl> <dbl>        <dbl> <int> <chr>      
##  1 Activated NOTCH1  0.00673 0.0680 -0.763 -1.82            2     7 14357      
##  2 Activated NOTCH1  0.00673 0.0680 -0.763 -1.82            2     7 18128      
##  3 Activated NOTCH1  0.00673 0.0680 -0.763 -1.82            2     7 74198      
##  4 Activation of IRF 0.0145  0.112  -0.655 -1.76            5    10 56489      
##  5 Activation of IRF 0.0145  0.112  -0.655 -1.76            5    10 54131      
##  6 Activation of IRF 0.0145  0.112  -0.655 -1.76            5    10 54123      
##  7 Activation of IRF 0.0145  0.112  -0.655 -1.76            5    10 56480      
##  8 Activation of IRF 0.0145  0.112  -0.655 -1.76            5    10 22031      
##  9 Apoptosis          0.00147 0.0310  0.516  2.04            0    71 58801      
## 10 Apoptosis          0.00147 0.0310  0.516  2.04            0    71 14958      
## #  with 1,507 more rows
…
